Title: DE Home

----

Text: DE Home

----

Main-title: Home

----

Lead: DE Home

----

Sidebar-title: 

----

Sidebar-content: 

----

Maintitle: DE Home

----

Sidebartitle: 

----

Sidebarcontent: 

----

Banner: big.png