<?xml version="1.0" encoding="UTF-8" standalone="no"?>
<svg width="40px" height="77px" viewBox="0 0 40 77" version="1.1" xmlns="http://www.w3.org/2000/svg" xmlns:xlink="http://www.w3.org/1999/xlink" xmlns:sketch="http://www.bohemiancoding.com/sketch/ns">
    <!-- Generator: Sketch 3.4.4 (17249) - http://www.bohemiancoding.com/sketch -->
    <title>Shape</title>
    <desc>Created with Sketch.</desc>
    <defs></defs>
    <g id="Page-1" stroke="none" stroke-width="1" fill="none" fill-rule="evenodd" sketch:type="MSPage">
        <path d="M1.35216405,76.3549373 L39.1474714,38.8549373 L39.5052037,38.5 L39.1474714,38.1450627 L1.35216405,0.645062707 L0.64783595,1.35493729 L38.4431433,38.8549373 L38.4431433,38.1450627 L0.64783595,75.6450627 L1.35216405,76.3549373 L1.35216405,76.3549373 Z" id="Shape" fill="#000000" sketch:type="MSShapeGroup"></path>
    </g>
</svg>
